Data visualisation:
…
class: split-40
count: false

.column[.content[

```r
*uk
```
]]
.column[.content[

```
## # A tibble: 24 x 5
##     year party_short colour  government seats
##    <dbl> <chr>       <chr>        <dbl> <dbl>
##  1  2010 DUP         #D46A4C          0     8
##  2  2010 Lab         #DC241F          0   258
##  3  2010 LibDem      #FAA61A          1    57
##  4  2010 SNP         #FEF987          0     6
##  5  2010 Tories      #0087DC          1   306
##  6  2010 Other       grey             0    14
##  7  2015 DUP         #D46A4C          0     8
##  8  2015 Lab         #DC241F          0   232
##  9  2015 LibDem      #FAA61A          0     8
## 10  2015 SNP         #FEF987          0    56
## # … with 14 more rows
```
…
